Configuring TestNG with: org.apache.maven.surefire.testng.conf.TestNGMapConfigurator@28fa1b85
WebDriverRemoteWebDriver: firefox on LINUX (fc979050ac01401991600628c57ff6df)
WebDriverRemoteWebDriver: internet explorer on WINDOWS (d44570f16bc94b4cac878cd186028ba8)
WebDriverRemoteWebDriver: safari on MAC (176b02c4292c4dbbb6f1cbd2d14a85bd)
